[
  { "code": "en", "iso": "en", "file": "en.json", "name": "English" },
  { "code": "sv", "iso": "sv", "file": "sv.json", "name": "Svenska" },
  { "code": "it", "iso": "it", "file": "it.json", "name": "Italiano" },
  { "code": "pl", "iso": "pl", "file": "pl.json", "name": "Polski" },
  { "code": "fi", "iso": "fi", "file": "fi.json", "name": "Suomi" },
  { "code": "hu", "iso": "hu", "file": "hu.json", "name": "Magyar" },
  { "code": "fr", "iso": "fr", "file": "fr.json", "name": "Français" },
  { "code": "ru", "iso": "ru", "file": "ru.json", "name": "русский" },
  { "code": "ko", "iso": "ko", "file": "ko.json", "name": "한국어" },
  { "code": "es", "iso": "es", "file": "es.json", "name": "Español" },
  { "code": "de", "iso": "de", "file": "de.json", "name": "Deutsch" },
  { "code": "ar", "iso": "ar", "file": "ar.json", "name": "عربى", "dir": "rtl" },
  { "code": "fa", "iso": "fa", "file": "fa.json", "name": "Persian", "dir": "rtl" },
  { "code": "fur", "iso": "fur", "file": "fur.json", "name": "Friulian" },
  { "code": "he", "iso": "he", "file": "he.json", "name": "Hebrew", "dir": "rtl" },
  { "code": "hu", "iso": "hu", "file": "hu.json", "name": "Hungarian" },
  { "code": "id", "iso": "id", "file": "id.json", "name": "Indonesian" },
  { "code": "sq", "iso": "sq", "file": "sq.json", "name": "Albanian" },
  { "code": "zh-Hans", "iso": "zh-Hans", "file": "zh_Hans.json", "name": "Chinese (Simplified)" },
  { "code": "bg", "iso": "bg", "file": "bg.json", "name": "Bulgarian" },
  { "code": "nl", "iso": "nl", "file": "nl.json", "name": "Nederlands" },
  { "code": "ja", "iso": "ja", "file": "ja.json", "name": "日本"},
  {
    "code": "pt-br",
    "iso": "pt-BR",
    "file": "pt_BR.json",
    "name": "Português do Brasil"
  }
]
